alembic==1.3.1
babel==2.7.0
itsdangerous==1.1.0
mako==1.1.0
markupsafe==1.1.1
metapensiero.extjs.desktop==1.40
metapensiero.sqlalchemy.proxy==5.12
pastedeploy==2.0.1
pillow==6.2.1
plaster-pastedeploy==0.7
pycountry==19.8.18
pygal-maps-world==1.0.2
pygal==2.4.0
pynacl==1.3.0
pyramid-mailer==0.15.1
pyramid-mako==1.1.0
pyramid-tm==2.3
pyramid==1.10.4
pyrxp==2.2.0
python-rapidjson==0.9.1
pytz==2019.3
reportlab==3.5.32
ruamel.yaml==0.16.5
ruamel.yaml.clib==0.2.0
sqlalchemy==1.3.11
transaction==2.4.0
translationstring==1.3
venusian==3.0.0
waitress==1.3.1
webob==1.8.5
xlsxwriter==1.2.6
zope.deprecation==4.4.0
zope.interface==4.7.1
zope.sqlalchemy==1.2
